<define-tag pagetitle>DLA-872-1 xrdp</define-tag>
<define-tag report_date>2017-3-27</define-tag>
<define-tag secrefs>CVE-2017-6967 Bug#858143</define-tag>
<define-tag packages>xrdp</define-tag>
<define-tag isvulnerable>yes</define-tag>
<define-tag fixed>yes</define-tag>
<define-tag fixed-section>no</define-tag>

#use wml::debian::security

