<define-tag pagetitle>DLA-2130-1 libapache2-mod-auth-openidc</define-tag>
<define-tag report_date>2020-2-29</define-tag>
<define-tag secrefs>CVE-2019-20479</define-tag>
<define-tag packages>libapache2-mod-auth-openidc</define-tag>
<define-tag isvulnerable>yes</define-tag>
<define-tag fixed>yes</define-tag>
<define-tag fixed-section>no</define-tag>

#use wml::debian::security

