<define-tag pagetitle>DLA-1562-3 poppler</define-tag>
<define-tag report_date>2018-12-14</define-tag>
<define-tag secrefs>CVE-2018-16646</define-tag>
<define-tag packages>poppler</define-tag>
<define-tag isvulnerable>yes</define-tag>
<define-tag fixed>yes</define-tag>
<define-tag fixed-section>no</define-tag>

#use wml::debian::security

